%YAML 1.1
%TAG !u! tag:unity3d.com,2011:
--- !u!114 &11400000
MonoBehaviour:
  m_ObjectHideFlags: 0
  m_CorrespondingSourceObject: {fileID: 0}
  m_PrefabInstance: {fileID: 0}
  m_PrefabAsset: {fileID: 0}
  m_GameObject: {fileID: 0}
  m_Enabled: 1
  m_EditorHideFlags: 0
  m_Script: {fileID: 11500000, guid: db946631d0a94684b89265abc76aa530, type: 3}
  m_Name: TileData_Crystals
  m_EditorClassIdentifier: 
  id: 2
  objectName: Crystals
  tileSprite: {fileID: 3048538982666575687, guid: a9b59c004f4bed74fa73f8ddb5cab423, type: 3}
