%YAML 1.1
%TAG !u! tag:unity3d.com,2011:
--- !u!114 &11400000
MonoBehaviour:
  m_ObjectHideFlags: 0
  m_CorrespondingSourceObject: {fileID: 0}
  m_PrefabInstance: {fileID: 0}
  m_PrefabAsset: {fileID: 0}
  m_GameObject: {fileID: 0}
  m_Enabled: 1
  m_EditorHideFlags: 0
  m_Script: {fileID: 11500000, guid: 230e9ad6e8490ce47b07a5e1a4cc4fa7, type: 3}
  m_Name: Beach
  m_EditorClassIdentifier: 
  id: 2
  objectName: Beach
  mapData:
  - Y: 00000000e7030000e7030000e7030000040000000200000002000000e7030000e7030000e7030000
  - Y: e703000004000000e703000004000000e7030000e7030000e7030000e703000004000000e7030000
  - Y: e7030000e703000004000000e7030000e7030000e7030000e7030000e7030000e7030000e7030000
  - Y: e7030000e7030000e7030000e7030000e7030000e7030000e7030000e7030000e7030000e7030000
  - Y: e7030000e7030000e7030000e7030000e7030000e70300000400000004000000e7030000e7030000
  - Y: e7030000e7030000e7030000e7030000e7030000e70300000200000002000000e7030000e7030000
  - Y: e7030000e7030000020000000200000002000000e7030000e7030000e7030000e7030000e7030000
  - Y: e7030000e703000002000000e703000002000000e7030000e7030000e7030000e7030000e7030000
  - Y: e7030000e7030000e7030000e703000002000000e7030000e7030000e7030000e7030000e7030000
  - Y: 0200000002000000020000000200000002000000e7030000e7030000e7030000e7030000e7030000
